Final Project: Data Science Culmination Project
…
#averaging jobs with the same title together
salary_male_unique <- salary_male %>%
  group_by(`Job Title`) %>%
  mutate(Average_Salary = mean(Salary)) %>%
  distinct(Average_Salary)
  
salary_female_unique <- salary_female %>%
  group_by(`Job Title`) %>%
  mutate(Average_Salary = mean(Salary)) %>%
  distinct(Average_Salary)

salary_male_unique

# A tibble: 61 × 2
# Groups:   Job Title [61]
   `Job Title`                    Average_Salary
   <chr>                                   <dbl>
 1 Sales Associate                        33515.
 2 Delivery Driver                        28000 
 3 Sales Representative                   46444.
 4 Digital Marketing Manager              75968.
 5 HR Generalist                          72776.
 6 HR Coordinator                         34667.
 7 Accountant                             53750 
 8 Software Developer                     68011.
 9 Business Development Associate         38333.
10 Operations Analyst                     69167.
# ℹ 51 more rows

salary_female_unique

# A tibble: 67 × 2
# Groups:   Job Title [67]
   `Job Title`                     Average_Salary
   <chr>                                    <dbl>
 1 Sales Associate                         28207.
 2 Sales Representative                    35833.
 3 Receptionist                            25000 
 4 HR Coordinator                          41062.
 5 Customer Service Representative         33333.
 6 HR Generalist                           48855.
 7 Juniour HR Coordinator                  32000 
 8 Marketing Analyst                       63083.
 9 Business Development Associate          42500 
10 Operations Manager                      95200 
# ℹ 57 more rows
…
Checking the normal assumptions of linear regression, we can see that the data appears to fit to an acceptable level. The residuals vs. Fitted values graph is distributed mostly evenly from end to end, and the Q-Q Residuals plot, while both tails do slightly veer off the mean, they do at least mirror each other.

Now let us fit this model into our testing data. As you can see, we bound the predicted outcomes onto the testing dataset so we can compare the predicted value to the employee’s actual salary.

lm_preds <- predict(fit, testing) %>%
  bind_cols(testing)

New names:
• `` -> `...1`

lm_preds

# A tibble: 663 × 10
     ...1   Age Gender `Education Level` `Job Title`       `Years of Experience`
    <dbl> <dbl> <chr>              <dbl> <chr>                             <dbl>
 1 28938.    24 Male                   0 Sales Associate                       1
 2 28926.    28 Female                 0 Sales Associate                       1
 3 28946.    30 Female                 0 Sales Associate                       1
 4 25096.    21 Female                 0 Sales Representa…                     0
 5 24219.    21 Female                 0 Sales Representa…                     0
 6 25619.    24 Female                 0 Receptionist                          0
 7 25375.    24 Female                 0 Receptionist                          0
 8 24521.    24 Female                 0 Receptionist                          0
 9 25798.    24 Female                 0 Receptionist                          0
10 25226.    24 Female                 0 Receptionist                          0
# ℹ 653 more rows
# ℹ 4 more variables: Salary <dbl>, Country <chr>, Race <chr>, Senior <dbl>
…
We can see from this output that Years of Experience and job titles are very influential in decision-making. To be able to print this tree without having tens of job names crowd out the actual Boolean expression, we coded the job title to be a numeric value and factorized it, so while it’s a bit harder to understand what is happening, the lower a job title’s value is, the less money the position makes. Back to the tree, we can see that the longer someone works, the more money they will earn, and there are no questions about what position they will hold; they will still earn more money due to their experience. However, when we go down the tree in the opposite direction (meaning an employee has less experience), their position starts to play a more pivotal role.

Below we can see the decision tree model fitted onto the testing data. We can also see the predicted values compared to the actual salary values.

tree_fit_2 <- rpart(Salary ~., data = training)
tree_preds <- predict(tree_fit_2, newdata = testing) %>%
  bind_cols(testing)

New names:
• `` -> `...1`

tree_preds

# A tibble: 663 × 10
     ...1   Age Gender `Education Level` `Job Title`       `Years of Experience`
    <dbl> <dbl> <chr>              <dbl> <chr>                             <dbl>
 1 37293.    24 Male                   0 Sales Associate                       1
 2 37293.    28 Female                 0 Sales Associate                       1
 3 37293.    30 Female                 0 Sales Associate                       1
 4 37293.    21 Female                 0 Sales Representa…                     0
 5 37293.    21 Female                 0 Sales Representa…                     0
 6 37293.    24 Female                 0 Receptionist                          0
 7 37293.    24 Female                 0 Receptionist                          0
 8 37293.    24 Female                 0 Receptionist                          0
 9 37293.    24 Female                 0 Receptionist                          0
10 37293.    24 Female                 0 Receptionist                          0
# ℹ 653 more rows
# ℹ 4 more variables: Salary <dbl>, Country <chr>, Race <chr>, Senior <dbl>
…
tuned_tree_preds <- final_wf %>%
  last_fit(salary_split) %>%
  collect_predictions() %>%
  bind_cols(testing)

New names:
• `Salary` -> `Salary...4`
• `Salary` -> `Salary...11`

As we can see from the output of the tuned decision tree above, we get an r-squared value of .958, which is an incredible accuracy considering decision trees often suffer from low predictive power. However, our RMSE value is at a staggering 10491.67, so our outliers are heavily impacting the model in a negative way, which is usually the case for Decision Trees.

tuned_tree_preds

# A tibble: 663 × 14
    .pred id              .row Salary...4 .config   Age Gender `Education Level`
    <dbl> <chr>          <int>      <dbl> <chr>   <dbl> <chr>              <dbl>
 1 30667. train/test sp…    15      25000 Prepro…    24 Male                   0
 2 26310. train/test sp…    22      25000 Prepro…    28 Female                 0
 3 26310. train/test sp…    42      25000 Prepro…    30 Female                 0
 4 25136. train/test sp…    45      25000 Prepro…    21 Female                 0
 5 25136. train/test sp…    56      25000 Prepro…    21 Female                 0
 6 25136. train/test sp…    99      25000 Prepro…    24 Female                 0
 7 25136. train/test sp…   107      25000 Prepro…    24 Female                 0
 8 25136. train/test sp…   111      25000 Prepro…    24 Female                 0
 9 25136. train/test sp…   126      25000 Prepro…    24 Female                 0
10 25136. train/test sp…   128      25000 Prepro…    24 Female                 0
# ℹ 653 more rows
# ℹ 6 more variables: `Job Title` <chr>, `Years of Experience` <dbl>,
#   Salary...11 <dbl>, Country <chr>, Race <chr>, Senior <dbl>
…
The RMSE is almost three times larger than our decision tree model. It appears this model is not accurate at all at predicting salary.

Before we make any assumptions, let us take a look at the predictions

tuned_grid %>% 
    select_best() %>% 
    finalize_workflow(tuned_wf, .) %>% 
    last_fit(ridge_split) %>% 
    collect_predictions()

Warning in select_best(.): No value of `metric` was given; "rmse" will be used.

# A tibble: 663 × 5
    .pred id                .row Salary .config             
    <dbl> <chr>            <int>  <dbl> <chr>               
 1 53233. train/test split    10  25000 Preprocessor1_Model1
 2 48988. train/test split    12  25000 Preprocessor1_Model1
 3 50212. train/test split    33  25000 Preprocessor1_Model1
 4 50489. train/test split    34  25000 Preprocessor1_Model1
 5 50557. train/test split    35  25000 Preprocessor1_Model1
 6 42141. train/test split    55  25000 Preprocessor1_Model1
 7 42711. train/test split    59  25000 Preprocessor1_Model1
 8 43567. train/test split    69  25000 Preprocessor1_Model1
 9 43421. train/test split    71  25000 Preprocessor1_Model1
10 43027. train/test split    75  25000 Preprocessor1_Model1
# ℹ 653 more rows
…
